…
## # A tibble: 6 x 8
##   Month      Market_Visits Boxes ToGo_Bags LbsFood LbsFood_Distr
##   <date>             <dbl> <dbl>     <dbl>   <dbl>         <dbl>
## 1 2019-01-01          1047     0         0   59538         58824
## 2 2019-02-01           888     0         0   41649         41149
## 3 2019-03-01          1170     0         0   40130         39648
## 4 2019-04-01           937     0         0   48020         47444
## 5 2019-05-01           946     0         0   53728         53083
## 6 2019-06-01           947     0         0   70501         69655
## # ... with 2 more variables: DeliverMultnomah <dbl>, DeliverClackamas <dbl>

## # A tsibble: 62 x 3 [1D]
## # Key:       Location [2]
##    Month      Location           Lbs
##    <date>     <chr>            <dbl>
##  1 2019-01-01 DeliverClackamas   785
##  2 2019-02-01 DeliverClackamas   666
##  3 2019-03-01 DeliverClackamas   877
##  4 2019-04-01 DeliverClackamas   703
##  5 2019-05-01 DeliverClackamas   710
##  6 2019-06-01 DeliverClackamas   709
##  7 2019-07-01 DeliverClackamas   764
##  8 2019-08-01 DeliverClackamas   721
##  9 2019-09-01 DeliverClackamas   628
## 10 2019-10-01 DeliverClackamas   821
## # ... with 52 more rows
…
